SEMILLAS UTILIZADAS EN LA SIMULACIÓN N° 1: 
Seeds_Train: 
	Seed_G01 = 754,
	Seed_Gkt1kt2 = 357,
	Seed_Gkt2 = 861.
Seeds_ Mediator:
	Seed_Gkc1kc2 = 69.
Seeds_Gate: 
	Seed_G0kg1 = 445,
	Seed_Gkg2kg3 = 507.

