0.261543, -1
6.50047, 1
7.34045, -1
16.1239, 1
16.3096, -1
22.622, 1
23.4996, -1
30.0394, 1
30.822, -1
38.9475, 1
39.6235, -1
45.3401, 1
45.5008, -1
52.821, 1
53.2756, -1
58.4415, 1
59.2655, -1
66.9318, 1
67.3909, -1
74.9197, 1
75.7637, -1
81.5524, 1
82.1466, -1
87.4109, 1
87.7847, -1
94.3897, 1
94.5391, -1
99.6202, 1
