﻿SEMILLAS UTILIZADAS EN LA SIMULACIÓN N° 2: 
Seeds_Train: 
	Seed_G01 = 2358,
	Seed_Gkt1kt2 = 2040,
	Seed_Gkt2 = -777.
Seeds_ Mediator:
	Seed_Gkc1kc2 = 5833.
Seeds_Gate: 
	Seed_G0kg1 = 287,
	Seed_Gkg2kg3 = -491.


