0.249494, -1
3.26076, 0
5.42479, 1
5.9721, -1
9.91091, 0
13.1233, 1
13.4985, -1
17.5287, 0
19.7342, 1
20.5209, -1
25.173, 0
29.614, 1
29.7193, -1
34.0398, 0
37.3678, 1
38.1732, -1
42.0014, 0
44.9048, 1
45.4737, -1
49.055, 0
51.2137, 1
51.3434, -1
55.1086, 0
58.1595, 1
58.3966, -1
62.5095, 0
63.5361, 1
64.1887, -1
67.2632, 0
69.7952, 1
70.2642, -1
72.3132, 0
76.8033, 1
77.7757, -1
80.047, 0
84.8465, 1
85.3947, -1
90.1989, 0
93.4223, 1
94.3691, -1
99.3532, 0
100.43, 1
100.896, -1
104.183, 0
107.794, 1
108.13, -1
112.782, 0
114.51, 1
115.439, -1
119.922, 0
121.403, 1
122.381, -1
126.175, 0
129.728, 1
130.382, -1
132.614, 0
137.127, 1
137.649, -1
140.522, 0
145.127, 1
145.995, -1
149.203, 0
152.674, 1
153.146, -1
157.684, 0
158.823, 1
159.277, -1
162.115, 0
166.174, 1
166.399, -1
170.807, 0
172.951, 1
173.103, -1
175.941, 0
180.32, 1
180.862, -1
184.581, 0
188.68, 1
188.988, -1
193.417, 0
198.184, 1
198.845, -1
202.869, 0
207.696, 1
208.402, -1
211.058, 0
214.242, 1
215.072, -1
218.726, 0
220.301, 1
220.999, -1
223.68, 0
228.665, 1
229.017, -1
233.499, 0
237.376, 1
238.193, -1
242.331, 0
243.889, 1
244.842, -1
247.127, 0
251.401, 1
252.311, -1
255.655, 0
260.135, 1
260.962, -1
264.912, 0
267.106, 1
267.91, -1
270.473, 0
274.938, 1
275.185, -1
278.594, 0
280.371, 1
280.559, -1
283.073, 0
286.024, 1
286.252, -1
288.904, 0
291.495, 1
292.145, -1
296.381, 0
300.711, 1
301.151, -1
304.497, 0
307.647, 1
308.164, -1
310.97, 0
313.456, 1
314.025, -1
318.546, 0
322.668, 1
322.996, -1
327.058, 0
329.444, 1
329.82, -1
334.51, 0
337.637, 1
338.006, -1
340.241, 0
343.482, 1
344.324, -1
348.731, 0
350.93, 1
351.283, -1
355.329, 0
359.638, 1
360.188, -1
363.403, 0
365.411, 1
365.825, -1
369.479, 0
372.155, 1
372.702, -1
377.068, 0
381.177, 1
382.143, -1
384.671, 0
389.589, 1
390.535, -1
393.824, 0
396.796, 1
397.271, -1
401.969, 0
405.456, 1
405.982, -1
409.533, 0
411.242, 1
411.665, -1
413.979, 0
418.235, 1
418.811, -1
423.094, 0
425.607, 1
426.308, -1
428.347, 0
431.548, 1
432.141, -1
434.356, 0
439.176, 1
439.707, -1
442.186, 0
445.188, 1
446.101, -1
448.576, 0
453.385, 1
454.164, -1
456.26, 0
461.029, 1
461.768, -1
465.022, 0
466.993, 1
467.775, -1
472.117, 0
476.713, 1
477.312, -1
479.911, 0
484.013, 1
484.666, -1
489.505, 0
494.295, 1
494.626, -1
499.505, 0
502.128, 1
503.023, -1
507.925, 0
511.267, 1
512.148, -1
517.071, 0
520.49, 1
521.359, -1
523.461, 0
527.532, 1
527.939, -1
530.627, 0
533.43, 1
534.314, -1
538.967, 0
540.272, 1
540.4, -1
543.58, 0
546.047, 1
546.973, -1
550.682, 0
553.461, 1
553.797, -1
557.699, 0
559.387, 1
559.512, -1
563.026, 0
565.173, 1
566.008, -1
570.135, 0
572.314, 1
573.005, -1
576.678, 0
579.027, 1
579.709, -1
582.515, 0
586.444, 1
586.928, -1
591.691, 0
595.573, 1
595.911, -1
599.803, 0
602.783, 1
603.014, -1
606.256, 0
608.673, 1
609.57, -1
613.738, 0
618.462, 1
619.028, -1
621.144, 0
624.044, 1
624.467, -1
628.635, 0
632.062, 1
632.579, -1
637.234, 0
638.958, 1
639.48, -1
642.355, 0
646.959, 1
647.588, -1
651.458, 0
653.711, 1
654.364, -1
658.845, 0
659.978, 1
660.549, -1
664.626, 0
667.454, 1
668.354, -1
672.201, 0
677.018, 1
677.618, -1
679.938, 0
683.041, 1
683.355, -1
685.957, 0
689.879, 1
690.796, -1
693.258, 0
697.848, 1
697.988, -1
700.438, 0
705.154, 1
705.983, -1
710.459, 0
712.728, 1
713.704, -1
718.644, 0
722.459, 1
723.457, -1
727.818, 0
731.194, 1
731.866, -1
735.014, 0
739.572, 1
740.395, -1
743.9, 0
748.163, 1
748.723, -1
750.742, 0
754.386, 1
754.673, -1
757.288, 0
761.712, 1
761.846, -1
765.186, 0
767.891, 1
768.243, -1
772.097, 0
773.736, 1
774.683, -1
777.266, 0
781.392, 1
782.162, -1
786.218, 0
788.969, 1
789.506, -1
794.237, 0
796.29, 1
796.4, -1
799.397, 0
802.703, 1
802.821, -1
807.667, 0
808.807, 1
809.735, -1
814.658, 0
815.399, 1
816.153, -1
821.139, 0
823.52, 1
824.455, -1
827.788, 0
829.686, 1
830.03, -1
833.171, 0
836.324, 1
836.804, -1
841.604, 0
844.726, 1
845.424, -1
849.338, 0
851.345, 1
851.645, -1
856.519, 0
857.249, 1
858.174, -1
861.072, 0
863.881, 1
864.632, -1
869.296, 0
871.18, 1
871.79, -1
876.506, 0
877.445, 1
878.331, -1
880.451, 0
883.782, 1
883.954, -1
887.652, 0
892.083, 1
892.869, -1
896.365, 0
898.124, 1
898.403, -1
901.462, 0
906.329, 1
906.748, -1
909.812, 0
912.755, 1
912.92, -1
917.3, 0
919.316, 1
919.466, -1
923.757, 0
925.819, 1
926.813, -1
929.282, 0
932.465, 1
933.254, -1
936.293, 0
939.969, 1
940.319, -1
943.209, 0
947.558, 1
947.742, -1
951.434, 0
955.516, 1
956.28, -1
960.514, 0
964.046, 1
964.623, -1
967.603, 0
969.867, 1
970.456, -1
974.363, 0
977.414, 1
978.275, -1
980.873, 0
984.995, 1
985.375, -1
990.351, 0
993.622, 1
994.45, -1
997.044, 0
1000.38, 1
1001.16, -1
1004.45, 0
1009.03, 1
1009.45, -1
1011.71, 0
1015.59, 1
1015.98, -1
1019.78, 0
1022.23, 1
1022.95, -1
1025.2, 0
1028.46, 1
1028.99, -1
1033.39, 0
1038.36, 1
1039.28, -1
1042, 0
1046.22, 1
1047.06, -1
1049.7, 0
1053.22, 1
1053.39, -1
1057.9, 0
1062.53, 1
1063.47, -1
1067.78, 0
1071.74, 1
1072.2, -1
1076.08, 0
1079.89, 1
1080.59, -1
1083.61, 0
1086.28, 1
1086.98, -1
1091.45, 0
1092.4, 1
1092.56, -1
1095.55, 0
1097.72, 1
1098.21, -1
1103.21, 0
1105.57, 1
1106.23, -1
1108.82, 0
1111.47, 1
1112.1, -1
1115.19, 0
1118.28, 1
1118.99, -1
1121.91, 0
1126.76, 1
1127.68, -1
1131.4, 0
1136.35, 1
1136.99, -1
1139.86, 0
1142.72, 1
1143.25, -1
1146.74, 0
1149.33, 1
1150.01, -1
1152.31, 0
1155.43, 1
1155.76, -1
1160.29, 0
1163.9, 1
1164.37, -1
1168.95, 0
1170.86, 1
1170.98, -1
1175.81, 0
1178.16, 1
1178.39, -1
1182.36, 0
1183.77, 1
1184.15, -1
1186.87, 0
1190.17, 1
1190.98, -1
1195.27, 0
1196.87, 1
1197.81, -1
1202.6, 0
1203.26, 1
1204.25, -1
1207.04, 0
1209.46, 1
1210.2, -1
1214.02, 0
1217.79, 1
1218.35, -1
1220.87, 0
1224.44, 1
1225.03, -1
1229, 0
1231.4, 1
1232.17, -1
1234.18, 0
1237.6, 1
1238.21, -1
1241.78, 0
1246.48, 1
1246.63, -1
1249.71, 0
1252.64, 1
1253.4, -1
1256.28, 0
1260.75, 1
1261.67, -1
1266.47, 0
1268.46, 1
1269.19, -1
1272.05, 0
1274.66, 1
1275.19, -1
1277.69, 0
1281.31, 1
1281.5, -1
1285.02, 0
1288.71, 1
1289.38, -1
1293.79, 0
1296.34, 1
1297.09, -1
1300.25, 0
1303.8, 1
1304.6, -1
1308.19, 0
1312.56, 1
1312.89, -1
1316.38, 0
1319.33, 1
1319.56, -1
1323.59, 0
1327.35, 1
1327.7, -1
1330.93, 0
1334.86, 1
1335.38, -1
1340.31, 0
1341.28, 1
1341.46, -1
1345.59, 0
1350.26, 1
1350.96, -1
1355.16, 0
1359.28, 1
1359.45, -1
1361.6, 0
1366.35, 1
1367.34, -1
1369.88, 0
1372.63, 1
1373.27, -1
1377.49, 0
1380.82, 1
1381.4, -1
1384.87, 0
1387.88, 1
1388.35, -1
1390.9, 0
1395.52, 1
1396.16, -1
1400.8, 0
1404.67, 1
1404.8, -1
1408.83, 0
1412.64, 1
1413.14, -1
1415.23, 0
1418.27, 1
1419.26, -1
1423.46, 0
1428.21, 1
1428.92, -1
1431.59, 0
1434.78, 1
1435.74, -1
1440.55, 0
1441.15, 1
1441.77, -1
1445.85, 0
1447.5, 1
1448.32, -1
1452.74, 0
1455.01, 1
1455.94, -1
1458.79, 0
1463.04, 1
1463.26, -1
1467.65, 0
1469.06, 1
1469.68, -1
1471.72, 0
1475.25, 1
1476.18, -1
1480.54, 0
1484.57, 1
1485.53, -1
1489.62, 0
1493.68, 1
1494.12, -1
1498.35, 0
